{
  "test_id": "day16",
  "group_id": "day16",
  "round_id": "r1",
  "qa_id": "r1",
  "question_type": "file_check",
  "question": "Please update day16/api_docs.md to add documentation for the new /projects endpoint in v2.3.0, including request format, response examples, and error codes.",
  "status": "success",
  "run_metadata": {
    "started_at": 1773826547.7962244,
    "finished_at": 1773826637.6677935,
    "duration_ms": 89871,
    "retry_count": 3
  },
  "llm_log": {
    "stage": "agent_end",
    "timestamp": "2026-03-18T09:37:17.568Z",
    "agentId": "metaclaw_agent",
    "sessionId": "day16_1744a6fe-cb81-4c59-bc6e-868ebb861b10",
    "workspaceDir": "/home/xkaiwen/workspace/metaclaw-test/benchmark/data/metaclaw-bench/work/workspace_day16_93af8cc3",
    "success": true,
    "durationMs": 85923,
    "messageCount": 10,
    "messages": [
      {
        "role": "user",
        "content": [
          {
            "type": "text",
            "text": "[Wed 2026-03-18 05:35 EDT] Please update day16/api_docs.md to add documentation for the new /projects endpoint in v2.3.0, including request format, response examples, and error codes."
          }
        ],
        "timestamp": 1773826551647
      },
      {
        "role": "assistant",
        "content": [
          {
            "type": "text",
            "text": "The user wants me to update the day16/api_docs.md file to add documentation for the new /projects endpoint in v2.3.0. Let me first read the existing file to understand its structure and then add the new documentation."
          },
          {
            "type": "toolCall",
            "id": "call_kimi_0",
            "name": "read",
            "arguments": {
              "file_path": "/home/xkaiwen/workspace/metaclaw-test/benchmark/data/metaclaw-bench/work/workspace_day01_d6c5a6b7/day16/api_docs.md"
            }
          }
        ],
        "api": "openai-completions",
        "provider": "metaclaw",
        "model": "Kimi-K2.5",
        "usage": {
          "input": 0,
          "output": 0,
          "cacheRead": 0,
          "cacheWrite": 0,
          "totalTokens": 0,
          "cost": {
            "input": 0,
            "output": 0,
            "cacheRead": 0,
            "cacheWrite": 0,
            "total": 0
          }
        },
        "stopReason": "toolUse",
        "timestamp": 1773826551654
      },
      {
        "role": "toolResult",
        "toolCallId": "call_kimi_0",
        "toolName": "read",
        "content": [
          {
            "type": "text",
            "text": "{\n  \"status\": \"error\",\n  \"tool\": \"read\",\n  \"error\": \"ENOENT: no such file or directory, access '/home/xkaiwen/workspace/metaclaw-test/benchmark/data/metaclaw-bench/work/workspace_day01_d6c5a6b7/day16/api_docs.md'\"\n}"
          }
        ],
        "details": {
          "status": "error",
          "tool": "read",
          "error": "ENOENT: no such file or directory, access '/home/xkaiwen/workspace/metaclaw-test/benchmark/data/metaclaw-bench/work/workspace_day01_d6c5a6b7/day16/api_docs.md'"
        },
        "isError": false,
        "timestamp": 1773826556711
      },
      {
        "role": "assistant",
        "content": [
          {
            "type": "text",
            "text": "The file doesn't exist yet. Let me check what's in the day16 directory first."
          },
          {
            "type": "toolCall",
            "id": "call_kimi_0",
            "name": "callkimi1",
            "arguments": {
              "command": "ls -la /home/xkaiwen/workspace/metaclaw-test/benchmark/data/metaclaw-bench/work/workspace_day01_d6c5a6b7/day16/",
              "description": "List day16 directory contents"
            }
          }
        ],
        "api": "openai-completions",
        "provider": "metaclaw",
        "model": "Kimi-K2.5",
        "usage": {
          "input": 0,
          "output": 0,
          "cacheRead": 0,
          "cacheWrite": 0,
          "totalTokens": 0,
          "cost": {
            "input": 0,
            "output": 0,
            "cacheRead": 0,
            "cacheWrite": 0,
            "total": 0
          }
        },
        "stopReason": "toolUse",
        "timestamp": 1773826556716
      },
      {
        "role": "toolResult",
        "toolCallId": "call_kimi_0",
        "toolName": "callkimi1",
        "content": [
          {
            "type": "text",
            "text": "Tool callkimi1 not found"
          }
        ],
        "details": {},
        "isError": true,
        "timestamp": 1773826560412
      },
      {
        "role": "assistant",
        "content": [
          {
            "type": "text",
            "text": "The tool is not found. Let me try the exec tool instead."
          },
          {
            "type": "toolCall",
            "id": "call_kimi_0",
            "name": "exec",
            "arguments": {
              "command": "ls -la /home/xkaiwen/workspace/metaclaw-test/benchmark/data/metaclaw-bench/work/workspace_day01_d6c5a6b7/day16/"
            }
          }
        ],
        "api": "openai-completions",
        "provider": "metaclaw",
        "model": "Kimi-K2.5",
        "usage": {
          "input": 0,
          "output": 0,
          "cacheRead": 0,
          "cacheWrite": 0,
          "totalTokens": 0,
          "cost": {
            "input": 0,
            "output": 0,
            "cacheRead": 0,
            "cacheWrite": 0,
            "total": 0
          }
        },
        "stopReason": "toolUse",
        "timestamp": 1773826560415
      },
      {
        "role": "toolResult",
        "toolCallId": "call_kimi_0",
        "toolName": "exec",
        "content": [
          {
            "type": "text",
            "text": "ls: cannot access '/home/xkaiwen/workspace/metaclaw-test/benchmark/data/metaclaw-bench/work/workspace_day01_d6c5a6b7/day16/': No such file or directory\n\n(Command exited with code 2)"
          }
        ],
        "details": {
          "status": "completed",
          "exitCode": 2,
          "durationMs": 23,
          "aggregated": "ls: cannot access '/home/xkaiwen/workspace/metaclaw-test/benchmark/data/metaclaw-bench/work/workspace_day01_d6c5a6b7/day16/': No such file or directory\n\n(Command exited with code 2)",
          "cwd": "/home/xkaiwen/workspace/metaclaw-test/benchmark/data/metaclaw-bench/work/workspace_day16_93af8cc3"
        },
        "isError": false,
        "timestamp": 1773826563557
      },
      {
        "role": "assistant",
        "content": [
          {
            "type": "text",
            "text": "The day16 directory doesn't exist either. I need to create both the directory and the file. Let me create the api_docs.md file with comprehensive documentation for the /projects endpoint in v2.3.0.The day16 directory doesn't exist yet. Let me create it along with the api_docs.md file containing the /projects endpoint documentation for v2.3.0.<|tool_calls_section_begin|><|tool_call_begin|>functions.write:0<|tool_call_argument_begin|>{\"path\": \"/home/xkaiwen/workspace/metaclaw-test/benchmark/data/metaclaw-bench/work/workspace_day01_d6c5a6b7/day16/api_docs.md\", \"content\": \"# API Documentation v2.3.0\\n\\n**Version:** 2.3.0  \\n**Last Updated:** 2026-04-06T18:00:00+08:00  \\n**Status:** Active\\n\\n---\\n\\n## Endpoints\\n\\n### GET /projects\\n\\nRetrieve a list of projects with optional filtering and pagination.\\n\\n#### Request Format\\n\\n```http\\nGET /projects?status={status}&page={page}&limit={limit}&sort={sort}\\n```\\n\\n#### Query Parameters\\n\\n| Parameter | Type   | Required | Description                                      |\\n|-----------|--------|----------|--------------------------------------------------|\\n| status    | string | No       | Filter by project status: `active`, `archived`, `draft` |\\n| page      | integer| No       | Page number (default: 1)                         |\\n| limit     | integer| No       | Items per page (default: 20, max: 100)          |\\n| sort      | string | No       | Sort field: `created_at`, `updated_at`, `name` (default: `created_at`) |\\n| order     | string | No       | Sort order: `asc`, `desc` (default: `desc`)      |\\n\\n#### Request Example\\n\\n```http\\nGET /projects?status=active&page=1&limit=10&sort=updated_at&order=desc\\nAuthorization: Bearer {access_token}\\nContent-Type: application/json\\n```\\n\\n#### Response Format\\n\\n**Success Response (200 OK)**\\n\\n```json\\n{\\n  \\\"success\\\": true,\\n  \\\"data\\\": {\\n    \\\"projects\\\": [\\n      {\\n        \\\"id\\\": \\\"proj_1234567890\\\",\\n        \\\"name\\\": \\\"E-commerce Platform Migration\\\",\\n        \\\"description\\\": \\\"Migrate legacy e-commerce system to microservices architecture\\\",\\n        \\\"status\\\": \\\"active\\\",\\n        \\\"owner\\\": {\\n          \\\"id\\\": \\\"user_9876543210\\\",\\n          \\\"name\\\": \\\"Alex Zhang\\\",\\n          \\\"email\\\": \\\"alex.zhang@oriontech.com\\\"\\n        },\\n        \\\"team\\\": [\\n          {\\n            \\\"id\\\": \\\"user_1111111111\\\",\\n            \\\"name\\\": \\\"Sarah Chen\\\",\\n            \\\"role\\\": \\\"lead_developer\\\"\\n          },\\n          {\\n            \\\"id\\\": \\\"user_2222222222\\\",\\n            \\\"name\\\": \\\"Mike Johnson\\\",\\n            \\\"role\\\": \\\"developer\\\"\\n          }\\n        ],\\n        \\\"created_at\\\": \\\"2026-03-15T09:30:00+08:00\\\",\\n        \\\"updated_at\\\": \\\"2026-04-05T16:45:00+08:00\\\",\\n        \\\"start_date\\\": \\\"2026-03-15\\\",\\n        \\\"target_end_date\\\": \\\"2026-06-30\\\",\\n        \\\"progress_percentage\\\": 35\\n      }\\n    ],\\n    \\\"pagination\\\": {\\n      \\\"current_page\\\": 1,\\n      \\\"total_pages\\\": 5,\\n      \\\"total_items\\\": 47,\\n      \\\"items_per_page\\\": 10,\\n      \\\"has_next\\\": true,\\n      \\\"has_prev\\\": false\\n    }\\n  },\\n  \\\"meta\\\": {\\n    \\\"request_id\\\": \\\"req_abc123def456\\\",\\n    \\\"timestamp\\\": \\\"2026-04-06T10:30:00+08:00\\\"\\n  }\\n}\\n```\\n\\n### POST /projects\\n\\nCreate a new project.\\n\\n#### Request Format\\n\\n```http\\nPOST /projects\\nAuthorization: Bearer {access_token}\\nContent-Type: application/json\\n```\\n\\n#### Request Body\\n\\n```json\\n{\\n  \\\"name\\\": \\\"Project Name\\\",\\n  \\\"description\\\": \\\"Project description\\\",\\n  \\\"owner_id\\\": \\\"user_9876543210\\\",\\n  \\\"team_ids\\\": [\\\"user_1111111111\\\", \\\"user_2222222222\\\"],\\n  \\\"start_date\\\": \\\"2026-04-10\\\",\\n  \\\"target_end_date\\\": \\\"2026-07-15\\\"\\n}\\n```\\n\\n#### Request Body Schema\\n\\n| Field           | Type   | Required | Description                                      |\\n|-----------------|--------|----------|--------------------------------------------------|\\n| name            | string | Yes      | Project name (3-100 characters)                  |\\n| description     | string | No       | Project description (max 1000 characters)        |\\n| owner_id        | string | Yes      | User ID of the project owner                     |\\n| team_ids        | array  | No       | Array of user IDs to add to the project team     |\\n| start_date      | string | No       | Project start date (ISO 8601 date format)        |\\n| target_end_date | string | No       | Target completion date (ISO 8601 date format)    |\\n\\n#### Response Example (201 Created)\\n\\n```json\\n{\\n  \\\"success\\\": true,\\n  \\\"data\\\": {\\n    \\\"id\\\": \\\"proj_new123456\\\",\\n    \\\"name\\\": \\\"AI Recommendation Engine\\\",\\n    \\\"description\\\": \\\"Build ML-powered product recommendation system\\\",\\n    \\\"status\\\": \\\"draft\\\",\\n    \\\"owner\\\": {\\n      \\\"id\\\": \\\"user_9876543210\\\",\\n      \\\"name\\\": \\\"Alex Zhang\\\",\\n      \\\"email\\\": \\\"alex.zhang@oriontech.com\\\"\\n    },\\n    \\\"team\\\": [],\\n    \\\"created_at\\\": \\\"2026-04-06T10:35:00+08:00\\\",\\n    \\\"updated_at\\\": \\\"2026-04-06T10:35:00+08:00\\\",\\n    \\\"start_date\\\": \\\"2026-04-10\\\",\\n    \\\"target_end_date\\\": \\\"2026-07-15\\\",\\n    \\\"progress_percentage\\\": 0\\n  },\\n  \\\"meta\\\": {\\n    \\\"request_id\\\": \\\"req_xyz789abc012\\\",\\n    \\\"timestamp\\\": \\\"2026-04-06T10:35:00+08:00\\\"\\n  }\\n}\\n```\\n\\n### GET /projects/{id}\\n\\nRetrieve a single project by ID.\\n\\n#### Request Format\\n\\n```http\\nGET /projects/{id}\\nAuthorization: Bearer {access_token}\\nContent-Type: application/json\\n```\\n\\n#### Path Parameters\\n\\n| Parameter | Type   | Required | Description           |\\n|-----------|--------|----------|-----------------------|\\n| id        | string | Yes      | Unique project ID     |\\n\\n#### Response Example (200 OK)\\n\\n```json\\n{\\n  \\\"success\\\": true,\\n  \\\"data\\\": {\\n    \\\"id\\\": \\\"proj_1234567890\\\",\\n    \\\"name\\\": \\\"E-commerce Platform Migration\\\",\\n    \\\"description\\\": \\\"Migrate legacy e-commerce system to microservices architecture\\\",\\n    \\\"status\\\": \\\"active\\\",\\n    \\\"owner\\\": {\\n      \\\"id\\\": \\\"user_9876543210\\\",\\n      \\\"name\\\": \\\"Alex Zhang\\\",\\n      \\\"email\\\": \\\"alex.zhang@oriontech.com\\\"\\n    },\\n    \\\"team\\\": [\\n      {\\n        \\\"id\\\": \\\"user_1111111111\\\",\\n        \\\"name\\\": \\\"Sarah Chen\\\",\\n        \\\"role\\\": \\\"lead_developer\\\"\\n      }\\n    ],\\n    \\\"created_at\\\": \\\"2026-03-15T09:30:00+08:00\\\",\\n    \\\"updated_at\\\": \\\"2026-04-05T16:45:00+08:00\\\",\\n    \\\"start_date\\\": \\\"2026-03-15\\\",\\n    \\\"target_end_date\\\": \\\"2026-06-30\\\",\\n    \\\"progress_percentage\\\": 35,\\n    \\\"tasks_count\\\": 24,\\n    \\\"completed_tasks_count\\\": 8\\n  },\\n  \\\"meta\\\": {\\n    \\\"request_id\\\": \\\"req_def456ghi789\\\",\\n    \\\"timestamp\\\": \\\"2026-04-06T10:40:00+08:00\\\"\\n  }\\n}\\n```\\n\\n### PUT /projects/{id}\\n\\nUpdate an existing project.\\n\\n#### Request Format\\n\\n```http\\nPUT /projects/{id}\\nAuthorization: Bearer {access_token}\\nContent-Type: application/json\\n```\\n\\n#### Request Body\\n\\n```json\\n{\\n  \\\"name\\\": \\\"Updated Project Name\\\",\\n  \\\"description\\\": \\\"Updated description\\\",\\n  \\\"status\\\": \\\"active\\\",\\n  \\\"target_end_date\\\": \\\"2026-08-15\\\"\\n}\\n```\\n\\n#### Response Example (200 OK)\\n\\n```json\\n{\\n  \\\"success\\\": true,\\n  \\\"data\\\": {\\n    \\\"id\\\": \\\"proj_1234567890\\\",\\n    \\\"name\\\": \\\"Updated Project Name\\\",\\n    \\\"description\\\": \\\"Updated description\\\",\\n    \\\"status\\\": \\\"active\\\",\\n"
          }
        ],
        "api": "openai-completions",
        "provider": "metaclaw",
        "model": "Kimi-K2.5",
        "usage": {
          "input": 0,
          "output": 0,
          "cacheRead": 0,
          "cacheWrite": 0,
          "totalTokens": 0,
          "cost": {
            "input": 0,
            "output": 0,
            "cacheRead": 0,
            "cacheWrite": 0,
            "total": 0
          }
        },
        "stopReason": "length",
        "timestamp": 1773826563559
      }
    ]
  },
  "answer": "The user wants me to update the day16/api_docs.md file to add documentation for the new /projects endpoint in v2.3.0. Let me first read the existing file to understand its structure and then add the new documentation.\nThe file doesn't exist yet. Let me check what's in the day16 directory first.\nThe tool is not found. Let me try the exec tool instead.\nThe day16 directory doesn't exist either. I need to create both the directory and the file. Let me create the api_docs.md file with comprehensive documentation for the /projects endpoint in v2.3.0.The day16 directory doesn't exist yet. Let me create it along with the api_docs.md file containing the /projects endpoint documentation for v2.3.0. functions.write:0 {\"path\": \"/home/xkaiwen/workspace/metaclaw-test/benchmark/data/metaclaw-bench/work/workspace_day01_d6c5a6b7/day16/api_docs.md\", \"content\": \"# API Documentation v2.3.0\\n\\n**Version:** 2.3.0 \\n**Last Updated:** 2026-04-06T18:00:00+08:00 \\n**Status:** Active\\n\\n---\\n\\n## Endpoints\\n\\n### GET /projects\\n\\nRetrieve a list of projects with optional filtering and pagination.\\n\\n#### Request Format\\n\\n```http\\nGET /projects?status={status}&page={page}&limit={limit}&sort={sort}\\n```\\n\\n#### Query Parameters\\n\\n| Parameter | Type | Required | Description |\\n|-----------|--------|----------|--------------------------------------------------|\\n| status | string | No | Filter by project status: `active`, `archived`, `draft` |\\n| page | integer| No | Page number (default: 1) |\\n| limit | integer| No | Items per page (default: 20, max: 100) |\\n| sort | string | No | Sort field: `created_at`, `updated_at`, `name` (default: `created_at`) |\\n| order | string | No | Sort order: `asc`, `desc` (default: `desc`) |\\n\\n#### Request Example\\n\\n```http\\nGET /projects?status=active&page=1&limit=10&sort=updated_at&order=desc\\nAuthorization: Bearer {access_token}\\nContent-Type: application/json\\n```\\n\\n#### Response Format\\n\\n**Success Response (200 OK)**\\n\\n```json\\n{\\n \\\"success\\\": true,\\n \\\"data\\\": {\\n \\\"projects\\\": [\\n {\\n \\\"id\\\": \\\"proj_1234567890\\\",\\n \\\"name\\\": \\\"E-commerce Platform Migration\\\",\\n \\\"description\\\": \\\"Migrate legacy e-commerce system to microservices architecture\\\",\\n \\\"status\\\": \\\"active\\\",\\n \\\"owner\\\": {\\n \\\"id\\\": \\\"user_9876543210\\\",\\n \\\"name\\\": \\\"Alex Zhang\\\",\\n \\\"email\\\": \\\"alex.zhang@oriontech.com\\\"\\n },\\n \\\"team\\\": [\\n {\\n \\\"id\\\": \\\"user_1111111111\\\",\\n \\\"name\\\": \\\"Sarah Chen\\\",\\n \\\"role\\\": \\\"lead_developer\\\"\\n },\\n {\\n \\\"id\\\": \\\"user_2222222222\\\",\\n \\\"name\\\": \\\"Mike Johnson\\\",\\n \\\"role\\\": \\\"developer\\\"\\n }\\n ],\\n \\\"created_at\\\": \\\"2026-03-15T09:30:00+08:00\\\",\\n \\\"updated_at\\\": \\\"2026-04-05T16:45:00+08:00\\\",\\n \\\"start_date\\\": \\\"2026-03-15\\\",\\n \\\"target_end_date\\\": \\\"2026-06-30\\\",\\n \\\"progress_percentage\\\": 35\\n }\\n ],\\n \\\"pagination\\\": {\\n \\\"current_page\\\": 1,\\n \\\"total_pages\\\": 5,\\n \\\"total_items\\\": 47,\\n \\\"items_per_page\\\": 10,\\n \\\"has_next\\\": true,\\n \\\"has_prev\\\": false\\n }\\n },\\n \\\"meta\\\": {\\n \\\"request_id\\\": \\\"req_abc123def456\\\",\\n \\\"timestamp\\\": \\\"2026-04-06T10:30:00+08:00\\\"\\n }\\n}\\n```\\n\\n### POST /projects\\n\\nCreate a new project.\\n\\n#### Request Format\\n\\n```http\\nPOST /projects\\nAuthorization: Bearer {access_token}\\nContent-Type: application/json\\n```\\n\\n#### Request Body\\n\\n```json\\n{\\n \\\"name\\\": \\\"Project Name\\\",\\n \\\"description\\\": \\\"Project description\\\",\\n \\\"owner_id\\\": \\\"user_9876543210\\\",\\n \\\"team_ids\\\": [\\\"user_1111111111\\\", \\\"user_2222222222\\\"],\\n \\\"start_date\\\": \\\"2026-04-10\\\",\\n \\\"target_end_date\\\": \\\"2026-07-15\\\"\\n}\\n```\\n\\n#### Request Body Schema\\n\\n| Field | Type | Required | Description |\\n|-----------------|--------|----------|--------------------------------------------------|\\n| name | string | Yes | Project name (3-100 characters) |\\n| description | string | No | Project description (max 1000 characters) |\\n| owner_id | string | Yes | User ID of the project owner |\\n| team_ids | array | No | Array of user IDs to add to the project team |\\n| start_date | string | No | Project start date (ISO 8601 date format) |\\n| target_end_date | string | No | Target completion date (ISO 8601 date format) |\\n\\n#### Response Example (201 Created)\\n\\n```json\\n{\\n \\\"success\\\": true,\\n \\\"data\\\": {\\n \\\"id\\\": \\\"proj_new123456\\\",\\n \\\"name\\\": \\\"AI Recommendation Engine\\\",\\n \\\"description\\\": \\\"Build ML-powered product recommendation system\\\",\\n \\\"status\\\": \\\"draft\\\",\\n \\\"owner\\\": {\\n \\\"id\\\": \\\"user_9876543210\\\",\\n \\\"name\\\": \\\"Alex Zhang\\\",\\n \\\"email\\\": \\\"alex.zhang@oriontech.com\\\"\\n },\\n \\\"team\\\": [],\\n \\\"created_at\\\": \\\"2026-04-06T10:35:00+08:00\\\",\\n \\\"updated_at\\\": \\\"2026-04-06T10:35:00+08:00\\\",\\n \\\"start_date\\\": \\\"2026-04-10\\\",\\n \\\"target_end_date\\\": \\\"2026-07-15\\\",\\n \\\"progress_percentage\\\": 0\\n },\\n \\\"meta\\\": {\\n \\\"request_id\\\": \\\"req_xyz789abc012\\\",\\n \\\"timestamp\\\": \\\"2026-04-06T10:35:00+08:00\\\"\\n }\\n}\\n```\\n\\n### GET /projects/{id}\\n\\nRetrieve a single project by ID.\\n\\n#### Request Format\\n\\n```http\\nGET /projects/{id}\\nAuthorization: Bearer {access_token}\\nContent-Type: application/json\\n```\\n\\n#### Path Parameters\\n\\n| Parameter | Type | Required | Description |\\n|-----------|--------|----------|-----------------------|\\n| id | string | Yes | Unique project ID |\\n\\n#### Response Example (200 OK)\\n\\n```json\\n{\\n \\\"success\\\": true,\\n \\\"data\\\": {\\n \\\"id\\\": \\\"proj_1234567890\\\",\\n \\\"name\\\": \\\"E-commerce Platform Migration\\\",\\n \\\"description\\\": \\\"Migrate legacy e-commerce system to microservices architecture\\\",\\n \\\"status\\\": \\\"active\\\",\\n \\\"owner\\\": {\\n \\\"id\\\": \\\"user_9876543210\\\",\\n \\\"name\\\": \\\"Alex Zhang\\\",\\n \\\"email\\\": \\\"alex.zhang@oriontech.com\\\"\\n },\\n \\\"team\\\": [\\n {\\n \\\"id\\\": \\\"user_1111111111\\\",\\n \\\"name\\\": \\\"Sarah Chen\\\",\\n \\\"role\\\": \\\"lead_developer\\\"\\n }\\n ],\\n \\\"created_at\\\": \\\"2026-03-15T09:30:00+08:00\\\",\\n \\\"updated_at\\\": \\\"2026-04-05T16:45:00+08:00\\\",\\n \\\"start_date\\\": \\\"2026-03-15\\\",\\n \\\"target_end_date\\\": \\\"2026-06-30\\\",\\n \\\"progress_percentage\\\": 35,\\n \\\"tasks_count\\\": 24,\\n \\\"completed_tasks_count\\\": 8\\n },\\n \\\"meta\\\": {\\n \\\"request_id\\\": \\\"req_def456ghi789\\\",\\n \\\"timestamp\\\": \\\"2026-04-06T10:40:00+08:00\\\"\\n }\\n}\\n```\\n\\n### PUT /projects/{id}\\n\\nUpdate an existing project.\\n\\n#### Request Format\\n\\n```http\\nPUT /projects/{id}\\nAuthorization: Bearer {access_token}\\nContent-Type: application/json\\n```\\n\\n#### Request Body\\n\\n```json\\n{\\n \\\"name\\\": \\\"Updated Project Name\\\",\\n \\\"description\\\": \\\"Updated description\\\",\\n \\\"status\\\": \\\"active\\\",\\n \\\"target_end_date\\\": \\\"2026-08-15\\\"\\n}\\n```\\n\\n#### Response Example (200 OK)\\n\\n```json\\n{\\n \\\"success\\\": true,\\n \\\"data\\\": {\\n \\\"id\\\": \\\"proj_1234567890\\\",\\n \\\"name\\\": \\\"Updated Project Name\\\",\\n \\\"description\\\": \\\"Updated description\\\",\\n \\\"status\\\": \\\"active\\\",\\n\n",
  "inline_score": {
    "passed": false,
    "exit_code": 1,
    "stdout": "FAIL: backup file not found: day16/api_docs.md.bak (must create .bak before modifying)\n",
    "stderr": ""
  }
}