{
  "test_id": "day21",
  "group_id": "day21",
  "round_id": "r7",
  "qa_id": "r7",
  "question_type": "file_check",
  "question": "[Previous Feedback] Correct!\n\nPlease write an integration guide for Orion API v2.3.0 in Markdown format and save it to the day21/ directory. Include the authentication flow, usage examples for key endpoints, and error handling recommendations.",
  "status": "success",
  "run_metadata": {
    "started_at": 1773831581.0840795,
    "finished_at": 1773831671.7405043,
    "duration_ms": 90656,
    "retry_count": 3
  },
  "llm_log": {
    "stage": "agent_end",
    "timestamp": "2026-03-18T11:01:11.644Z",
    "agentId": "metaclaw_agent",
    "sessionId": "day21_5f0f9db4-c575-438d-8140-045658d6676b",
    "workspaceDir": "/home/xkaiwen/workspace/metaclaw-test/benchmark/data/metaclaw-bench/work/workspace_day21_e9157790",
    "success": true,
    "durationMs": 86820,
    "messageCount": 21,
    "messages": [
      {
        "role": "user",
        "content": [
          {
            "type": "text",
            "text": "[Wed 2026-03-18 06:59 EDT] [Previous Feedback] Correct!\n\nPlease write an integration guide for Orion API v2.3.0 in Markdown format and save it to the day21/ directory. Include the authentication flow, usage examples for key endpoints, and error handling recommendations."
          }
        ],
        "timestamp": 1773831584826
      },
      {
        "role": "assistant",
        "content": [
          {
            "type": "text",
            "text": "The user wants me to create an integration guide for Orion API v2.3.0 in Markdown format, saved to day21/. \n\nRequirements:\n1. Follow P2 naming convention: 20260413_*.md (today is April 13)\n2. Include:\n   - Authentication flow\n   - Usage examples for key endpoints\n   - Error handling recommendations\n3. Backup if file exists (P4)\n4. Append 4th entry to done.log (P5)\n\nLet me create the integration guide document.I'll create the Orion API v2.3.0 integration guide. Let me first check if the file exists, then create it."
          },
          {
            "type": "toolCall",
            "id": "call_kimi_0",
            "name": "exec",
            "arguments": {
              "command": "ls -la day21/20260413_orion_api_v2.3.0_integration_guide.md 2>/dev/null || echo \"File does not exist\""
            }
          }
        ],
        "api": "openai-completions",
        "provider": "metaclaw",
        "model": "Kimi-K2.5",
        "usage": {
          "input": 0,
          "output": 0,
          "cacheRead": 0,
          "cacheWrite": 0,
          "totalTokens": 0,
          "cost": {
            "input": 0,
            "output": 0,
            "cacheRead": 0,
            "cacheWrite": 0,
            "total": 0
          }
        },
        "stopReason": "toolUse",
        "timestamp": 1773831584829
      },
      {
        "role": "toolResult",
        "toolCallId": "call_kimi_0",
        "toolName": "exec",
        "content": [
          {
            "type": "text",
            "text": "File does not exist"
          }
        ],
        "details": {
          "status": "completed",
          "exitCode": 0,
          "durationMs": 12,
          "aggregated": "File does not exist",
          "cwd": "/home/xkaiwen/workspace/metaclaw-test/benchmark/data/metaclaw-bench/work/workspace_day21_e9157790"
        },
        "isError": false,
        "timestamp": 1773831594294
      },
      {
        "role": "assistant",
        "content": [
          {
            "type": "text",
            "text": "Good, the file doesn't exist. Now I'll create the integration guide document with:\n- Authentication flow\n- Usage examples for key endpoints\n- Error handling recommendationsGood, the file doesn't exist. Now I'll create the integration guide:<|tool_calls_section_begin|><|tool_call_begin|>functions.write:0<|tool_call_argument_begin|>{\"file_path\": \"day21/20260413_orion_api_v2.3.0_integration_guide.md\", \"content\": \"# Orion API v2.3.0 Integration Guide\\n\\n**Version**: 2.3.0  \\n**Last Updated**: April 13, 2026  \\n**API Base URL**: `https://api.orion-platform.io/v2`  \\n**Documentation**: [https://docs.orion-platform.io](https://docs.orion-platform.io)\\n\\n---\\n\\n## Table of Contents\\n\\n1. [Authentication Flow](#authentication-flow)\\n2. [Key Endpoints](#key-endpoints)\\n3. [Usage Examples](#usage-examples)\\n4. [Error Handling](#error-handling)\\n5. [Rate Limiting](#rate-limiting)\\n6. [SDKs and Tools](#sdks-and-tools)\\n\\n---\\n\\n## Authentication Flow\\n\\nOrion API v2.3.0 uses **JWT Bearer tokens** for authentication. All API requests must include a valid access token in the `Authorization` header.\\n\\n### Step 1: Obtain API Credentials\\n\\nRegister your application in the [Orion Developer Portal](https://dev.orion-platform.io) to receive:\\n- `client_id`: Your application's unique identifier\\n- `client_secret`: Your application's secret key\\n\\n### Step 2: Request Access Token\\n\\n**Endpoint**: `POST /auth/token`\\n\\n**Request**:\\n```http\\nPOST https://api.orion-platform.io/v2/auth/token\\nContent-Type: application/json\\n\\n{\\n  \\\"grant_type\\\": \\\"client_credentials\\\",\\n  \\\"client_id\\\": \\\"your_client_id\\\",\\n  \\\"client_secret\\\": \\\"your_client_secret\\\",\\n  \\\"scope\\\": \\\"read write\\\"\\n}\\n```\\n\\n**Response**:\\n```json\\n{\\n  \\\"access_token\\\": \\\"eyJhbGciOiJSUzI1NiIsInR5cCI6IkpXVCJ9...\\\",\\n  \\\"token_type\\\": \\\"Bearer\\\",\\n  \\\"expires_in\\\": 3600,\\n  \\\"scope\\\": \\\"read write\\\"\\n}\\n```\\n\\n### Step 3: Use the Access Token\\n\\nInclude the token in all subsequent requests:\\n\\n```http\\nGET https://api.orion-platform.io/v2/users/me\\nAuthorization: Bearer eyJhbGciOiJSUzI1NiIsInR5cCI6IkpXVCJ9...\\n```\\n\\n### Token Refresh\\n\\nTokens expire after 1 hour. Request a new token using the same endpoint when you receive a `401 Unauthorized` response.\\n\\n---\\n\\n## Key Endpoints\\n\\n| Endpoint | Method | Description | Scope |\\n|----------|--------|-------------|-------|\\n| `/auth/token` | POST | Obtain access token | — |\\n| `/users` | GET | List users | `read` |\\n| `/users/{id}` | GET | Get user by ID | `read` |\\n| `/users` | POST | Create new user | `write` |\\n| `/users/{id}` | PUT | Update user | `write` |\\n| `/users/{id}` | DELETE | Delete user | `write` |\\n| `/orders` | GET | List orders | `read` |\\n| `/orders` | POST | Create order | `write` |\\n| `/orders/{id}` | GET | Get order details | `read` |\\n| `/inventory` | GET | List inventory items | `read` |\\n| `/webhooks` | POST | Register webhook | `write` |\\n\\n---\\n\\n## Usage Examples\\n\\n### Example 1: Create a New User\\n\\n**Request**:\\n```http\\nPOST https://api.orion-platform.io/v2/users\\nAuthorization: Bearer {access_token}\\nContent-Type: application/json\\n\\n{\\n  \\\"email\\\": \\\"john.doe@example.com\\\",\\n  \\\"first_name\\\": \\\"John\\\",\\n  \\\"last_name\\\": \\\"Doe\\\",\\n  \\\"role\\\": \\\"developer\\\",\\n  \\\"department\\\": \\\"Engineering\\\"\\n}\\n```\\n\\n**Response (201 Created)**:\\n```json\\n{\\n  \\\"id\\\": \\\"usr_8f7d9a2b3c4e5f6g\\\",\\n  \\\"email\\\": \\\"john.doe@example.com\\\",\\n  \\\"first_name\\\": \\\"John\\\",\\n  \\\"last_name\\\": \\\"Doe\\\",\\n  \\\"role\\\": \\\"developer\\\",\\n  \\\"department\\\": \\\"Engineering\\\",\\n  \\\"created_at\\\": \\\"2026-04-13T06:30:00Z\\\",\\n  \\\"updated_at\\\": \\\"2026-04-13T06:30:00Z\\\",\\n  \\\"status\\\": \\\"active\\\"\\n}\\n```\\n\\n### Example 2: List Orders with Pagination\\n\\n**Request**:\\n```http\\nGET https://api.orion-platform.io/v2/orders?page=1&limit=20&status=pending\\nAuthorization: Bearer {access_token}\\n```\\n\\n**Response (200 OK)**:\\n```json\\n{\\n  \\\"data\\\": [\\n    {\\n      \\\"id\\\": \\\"ord_1234567890\\\",\\n      \\\"user_id\\\": \\\"usr_8f7d9a2b3c4e5f6g\\\",\\n      \\\"status\\\": \\\"pending\\\",\\n      \\\"total_amount\\\": 299.99,\\n      \\\"currency\\\": \\\"USD\\\",\\n      \\\"created_at\\\": \\\"2026-04-12T14:22:00Z\\\"\\n    }\\n  ],\\n  \\\"pagination\\\": {\\n    \\\"page\\\": 1,\\n    \\\"limit\\\": 20,\\n    \\\"total\\\": 156,\\n    \\\"total_pages\\\": 8,\\n    \\\"has_next\\\": true,\\n    \\\"has_prev\\\": false\\n  }\\n}\\n```\\n\\n### Example 3: Update Inventory Stock\\n\\n**Request**:\\n```http\\nPUT https://api.orion-platform.io/v2/inventory/sku_987654321\\nAuthorization: Bearer {access_token}\\nContent-Type: application/json\\n\\n{\\n  \\\"quantity\\\": 150,\\n  \\\"warehouse_id\\\": \\\"wh_nyc_01\\\",\\n  \\\"low_stock_threshold\\\": 20\\n}\\n```\\n\\n**Response (200 OK)**:\\n```json\\n{\\n  \\\"sku\\\": \\\"sku_987654321\\\",\\n  \\\"quantity\\\": 150,\\n  \\\"warehouse_id\\\": \\\"wh_nyc_01\\\",\\n  \\\"low_stock_threshold\\\": 20,\\n  \\\"last_restocked\\\": \\\"2026-04-13T06:30:00Z\\\",\\n  \\\"status\\\": \\\"in_stock\\\"\\n}\\n```\\n\\n### Example 4: Register a Webhook\\n\\n**Request**:\\n```http\\nPOST https://api.orion-platform.io/v2/webhooks\\nAuthorization: Bearer {access_token}\\nContent-Type: application/json\\n\\n{\\n  \\\"url\\\": \\\"https://your-app.com/webhooks/orion\\\",\\n  \\\"events\\\": [\\\"order.created\\\", \\\"order.updated\\\", \\\"user.deleted\\\"],\\n  \\\"secret\\\": \\\"whsec_your_webhook_secret\\\"\\n}\\n```\\n\\n**Response (201 Created)**:\\n```json\\n{\\n  \\\"id\\\": \\\"whk_abc123def456\\\",\\n  \\\"url\\\": \\\"https://your-app.com/webhooks/orion\\\",\\n  \\\"events\\\": [\\\"order.created\\\", \\\"order.updated\\\", \\\"user.deleted\\\"],\\n  \\\"status\\\": \\\"active\\\",\\n  \\\"created_at\\\": \\\"2026-04-13T06:30:00Z\\\"\\n}\\n```\\n\\n---\\n\\n## Error Handling\\n\\nOrion API uses standard HTTP status codes and returns detailed error information in the response body.\\n\\n### Error Response Format\\n\\n```json\\n{\\n  \\\"error\\\": {\\n    \\\"code\\\": \\\"invalid_request\\\",\\n    \\\"message\\\": \\\"The request body contains invalid data\\\",\\n    \\\"details\\\": [\\n      {\\n        \\\"field\\\": \\\"email\\\",\\n        \\\"issue\\\": \\\"must be a valid email address\\\"\\n      }\\n    ],\\n    \\\"request_id\\\": \\\"req_9a8b7c6d5e4f3g2h\\\",\\n    \\\"timestamp\\\": \\\"2026-04-13T06:30:00Z\\\"\\n  }\\n}\\n```\\n\\n### Common Error Codes\\n\\n| HTTP Status | Error Code | Description | Recommended Action |\\n|-------------|------------|-------------|-------------------|\\n| 400 | `invalid_request` | Request validation failed | Check request body and parameters |\\n| 401 | `unauthorized` | Invalid or expired token | Refresh access token |\\n| 403 | `forbidden` | Insufficient permissions | Check API key scopes |\\n| 404 | `not_found` | Resource not found | Verify resource ID |\\n| 409 | `conflict` | Resource already exists | Use unique identifiers |\\n| 422 | `unprocessable_entity` | Business logic error | Review error details |\\n| 429 | `rate_limit_exceeded` | Too many requests | Implement exponential backoff |\\n| 500 | `internal_error` | Server error | Retry with backoff; contact support if persistent |\\n|"
          }
        ],
        "api": "openai-completions",
        "provider": "metaclaw",
        "model": "Kimi-K2.5",
        "usage": {
          "input": 0,
          "output": 0,
          "cacheRead": 0,
          "cacheWrite": 0,
          "totalTokens": 0,
          "cost": {
            "input": 0,
            "output": 0,
            "cacheRead": 0,
            "cacheWrite": 0,
            "total": 0
          }
        },
        "stopReason": "length",
        "timestamp": 1773831594296
      }
    ]
  },
  "answer": "The user wants me to create an integration guide for Orion API v2.3.0 in Markdown format, saved to day21/. \n\nRequirements:\n1. Follow P2 naming convention: 20260413_*.md (today is April 13)\n2. Include:\n   - Authentication flow\n   - Usage examples for key endpoints\n   - Error handling recommendations\n3. Backup if file exists (P4)\n4. Append 4th entry to done.log (P5)\n\nLet me create the integration guide document.I'll create the Orion API v2.3.0 integration guide. Let me first check if the file exists, then create it.\nGood, the file doesn't exist. Now I'll create the integration guide document with:\n- Authentication flow\n- Usage examples for key endpoints\n- Error handling recommendationsGood, the file doesn't exist. Now I'll create the integration guide: functions.write:0 {\"file_path\": \"day21/20260413_orion_api_v2.3.0_integration_guide.md\", \"content\": \"# Orion API v2.3.0 Integration Guide\\n\\n**Version**: 2.3.0 \\n**Last Updated**: April 13, 2026 \\n**API Base URL**: `https://api.orion-platform.io/v2` \\n**Documentation**: [https://docs.orion-platform.io](https://docs.orion-platform.io)\\n\\n---\\n\\n## Table of Contents\\n\\n1. [Authentication Flow](#authentication-flow)\\n2. [Key Endpoints](#key-endpoints)\\n3. [Usage Examples](#usage-examples)\\n4. [Error Handling](#error-handling)\\n5. [Rate Limiting](#rate-limiting)\\n6. [SDKs and Tools](#sdks-and-tools)\\n\\n---\\n\\n## Authentication Flow\\n\\nOrion API v2.3.0 uses **JWT Bearer tokens** for authentication. All API requests must include a valid access token in the `Authorization` header.\\n\\n### Step 1: Obtain API Credentials\\n\\nRegister your application in the [Orion Developer Portal](https://dev.orion-platform.io) to receive:\\n- `client_id`: Your application's unique identifier\\n- `client_secret`: Your application's secret key\\n\\n### Step 2: Request Access Token\\n\\n**Endpoint**: `POST /auth/token`\\n\\n**Request**:\\n```http\\nPOST https://api.orion-platform.io/v2/auth/token\\nContent-Type: application/json\\n\\n{\\n \\\"grant_type\\\": \\\"client_credentials\\\",\\n \\\"client_id\\\": \\\"your_client_id\\\",\\n \\\"client_secret\\\": \\\"your_client_secret\\\",\\n \\\"scope\\\": \\\"read write\\\"\\n}\\n```\\n\\n**Response**:\\n```json\\n{\\n \\\"access_token\\\": \\\"eyJhbGciOiJSUzI1NiIsInR5cCI6IkpXVCJ9...\\\",\\n \\\"token_type\\\": \\\"Bearer\\\",\\n \\\"expires_in\\\": 3600,\\n \\\"scope\\\": \\\"read write\\\"\\n}\\n```\\n\\n### Step 3: Use the Access Token\\n\\nInclude the token in all subsequent requests:\\n\\n```http\\nGET https://api.orion-platform.io/v2/users/me\\nAuthorization: Bearer eyJhbGciOiJSUzI1NiIsInR5cCI6IkpXVCJ9...\\n```\\n\\n### Token Refresh\\n\\nTokens expire after 1 hour. Request a new token using the same endpoint when you receive a `401 Unauthorized` response.\\n\\n---\\n\\n## Key Endpoints\\n\\n| Endpoint | Method | Description | Scope |\\n|----------|--------|-------------|-------|\\n| `/auth/token` | POST | Obtain access token | — |\\n| `/users` | GET | List users | `read` |\\n| `/users/{id}` | GET | Get user by ID | `read` |\\n| `/users` | POST | Create new user | `write` |\\n| `/users/{id}` | PUT | Update user | `write` |\\n| `/users/{id}` | DELETE | Delete user | `write` |\\n| `/orders` | GET | List orders | `read` |\\n| `/orders` | POST | Create order | `write` |\\n| `/orders/{id}` | GET | Get order details | `read` |\\n| `/inventory` | GET | List inventory items | `read` |\\n| `/webhooks` | POST | Register webhook | `write` |\\n\\n---\\n\\n## Usage Examples\\n\\n### Example 1: Create a New User\\n\\n**Request**:\\n```http\\nPOST https://api.orion-platform.io/v2/users\\nAuthorization: Bearer {access_token}\\nContent-Type: application/json\\n\\n{\\n \\\"email\\\": \\\"john.doe@example.com\\\",\\n \\\"first_name\\\": \\\"John\\\",\\n \\\"last_name\\\": \\\"Doe\\\",\\n \\\"role\\\": \\\"developer\\\",\\n \\\"department\\\": \\\"Engineering\\\"\\n}\\n```\\n\\n**Response (201 Created)**:\\n```json\\n{\\n \\\"id\\\": \\\"usr_8f7d9a2b3c4e5f6g\\\",\\n \\\"email\\\": \\\"john.doe@example.com\\\",\\n \\\"first_name\\\": \\\"John\\\",\\n \\\"last_name\\\": \\\"Doe\\\",\\n \\\"role\\\": \\\"developer\\\",\\n \\\"department\\\": \\\"Engineering\\\",\\n \\\"created_at\\\": \\\"2026-04-13T06:30:00Z\\\",\\n \\\"updated_at\\\": \\\"2026-04-13T06:30:00Z\\\",\\n \\\"status\\\": \\\"active\\\"\\n}\\n```\\n\\n### Example 2: List Orders with Pagination\\n\\n**Request**:\\n```http\\nGET https://api.orion-platform.io/v2/orders?page=1&limit=20&status=pending\\nAuthorization: Bearer {access_token}\\n```\\n\\n**Response (200 OK)**:\\n```json\\n{\\n \\\"data\\\": [\\n {\\n \\\"id\\\": \\\"ord_1234567890\\\",\\n \\\"user_id\\\": \\\"usr_8f7d9a2b3c4e5f6g\\\",\\n \\\"status\\\": \\\"pending\\\",\\n \\\"total_amount\\\": 299.99,\\n \\\"currency\\\": \\\"USD\\\",\\n \\\"created_at\\\": \\\"2026-04-12T14:22:00Z\\\"\\n }\\n ],\\n \\\"pagination\\\": {\\n \\\"page\\\": 1,\\n \\\"limit\\\": 20,\\n \\\"total\\\": 156,\\n \\\"total_pages\\\": 8,\\n \\\"has_next\\\": true,\\n \\\"has_prev\\\": false\\n }\\n}\\n```\\n\\n### Example 3: Update Inventory Stock\\n\\n**Request**:\\n```http\\nPUT https://api.orion-platform.io/v2/inventory/sku_987654321\\nAuthorization: Bearer {access_token}\\nContent-Type: application/json\\n\\n{\\n \\\"quantity\\\": 150,\\n \\\"warehouse_id\\\": \\\"wh_nyc_01\\\",\\n \\\"low_stock_threshold\\\": 20\\n}\\n```\\n\\n**Response (200 OK)**:\\n```json\\n{\\n \\\"sku\\\": \\\"sku_987654321\\\",\\n \\\"quantity\\\": 150,\\n \\\"warehouse_id\\\": \\\"wh_nyc_01\\\",\\n \\\"low_stock_threshold\\\": 20,\\n \\\"last_restocked\\\": \\\"2026-04-13T06:30:00Z\\\",\\n \\\"status\\\": \\\"in_stock\\\"\\n}\\n```\\n\\n### Example 4: Register a Webhook\\n\\n**Request**:\\n```http\\nPOST https://api.orion-platform.io/v2/webhooks\\nAuthorization: Bearer {access_token}\\nContent-Type: application/json\\n\\n{\\n \\\"url\\\": \\\"https://your-app.com/webhooks/orion\\\",\\n \\\"events\\\": [\\\"order.created\\\", \\\"order.updated\\\", \\\"user.deleted\\\"],\\n \\\"secret\\\": \\\"whsec_your_webhook_secret\\\"\\n}\\n```\\n\\n**Response (201 Created)**:\\n```json\\n{\\n \\\"id\\\": \\\"whk_abc123def456\\\",\\n \\\"url\\\": \\\"https://your-app.com/webhooks/orion\\\",\\n \\\"events\\\": [\\\"order.created\\\", \\\"order.updated\\\", \\\"user.deleted\\\"],\\n \\\"status\\\": \\\"active\\\",\\n \\\"created_at\\\": \\\"2026-04-13T06:30:00Z\\\"\\n}\\n```\\n\\n---\\n\\n## Error Handling\\n\\nOrion API uses standard HTTP status codes and returns detailed error information in the response body.\\n\\n### Error Response Format\\n\\n```json\\n{\\n \\\"error\\\": {\\n \\\"code\\\": \\\"invalid_request\\\",\\n \\\"message\\\": \\\"The request body contains invalid data\\\",\\n \\\"details\\\": [\\n {\\n \\\"field\\\": \\\"email\\\",\\n \\\"issue\\\": \\\"must be a valid email address\\\"\\n }\\n ],\\n \\\"request_id\\\": \\\"req_9a8b7c6d5e4f3g2h\\\",\\n \\\"timestamp\\\": \\\"2026-04-13T06:30:00Z\\\"\\n }\\n}\\n```\\n\\n### Common Error Codes\\n\\n| HTTP Status | Error Code | Description | Recommended Action |\\n|-------------|------------|-------------|-------------------|\\n| 400 | `invalid_request` | Request validation failed | Check request body and parameters |\\n| 401 | `unauthorized` | Invalid or expired token | Refresh access token |\\n| 403 | `forbidden` | Insufficient permissions | Check API key scopes |\\n| 404 | `not_found` | Resource not found | Verify resource ID |\\n| 409 | `conflict` | Resource already exists | Use unique identifiers |\\n| 422 | `unprocessable_entity` | Business logic error | Review error details |\\n| 429 | `rate_limit_exceeded` | Too many requests | Implement exponential backoff |\\n| 500 | `internal_error` | Server error | Retry with backoff; contact support if persistent |\\n|\n",
  "inline_score": {
    "passed": false,
    "exit_code": 1,
    "stdout": "FAIL: expected >= 3 P2-compliant .md file(s) in day21/, found 2\n",
    "stderr": ""
  }
}